// Jest Snapshot v1, https://goo.gl/fbAQLP

exports[`<Button /> test should match the snapshot (noop) 1`] = `"<button class=\\"MuiButtonBase-root MuiButton-root MuiButton-contained makeStyles-button-1 MuiButton-colorInherit\\" tabindex=\\"0\\" type=\\"button\\"><span class=\\"MuiButton-label\\">test-noop</span><span class=\\"MuiTouchRipple-root\\"></span></button>"`;

exports[`<Button /> test should match the snapshot 1`] = `"<button class=\\"MuiButtonBase-root MuiButton-root MuiButton-contained makeStyles-button-1 MuiButton-colorInherit\\" tabindex=\\"0\\" type=\\"button\\"><span class=\\"MuiButton-label\\">test-label</span><span class=\\"MuiTouchRipple-root\\"></span></button>"`;
